<?xml version="1.0" encoding="utf-8" standalone="no"?>
<!DOCTYPE svg PUBLIC "-//W3C//DTD SVG 1.1//EN"
  "http://www.w3.org/Graphics/SVG/1.1/DTD/svg11.dtd">
<!-- Created with matplotlib (https://matplotlib.org/) -->
<svg height="584.64pt" version="1.1" viewBox="0 0 1152 584.64" width="1152pt" xmlns="http://www.w3.org/2000/svg" xmlns:xlink="http://www.w3.org/1999/xlink">
 <defs>
  <style type="text/css">
*{stroke-linecap:butt;stroke-linejoin:round;}
  </style>
 </defs>
 <g id="figure_1">
  <g id="patch_1">
   <path d="M 0 584.64 
L 1152 584.64 
L 1152 0 
L 0 0 
z
" style="fill:#ffffff;"/>
  </g>
  <g id="axes_1">
   <g id="patch_2">
    <path d="M 57.6 555.408 
L 1094.4 555.408 
L 1094.4 29.232 
L 57.6 29.232 
z
" style="fill:#ffffff;"/>
   </g>
   <g id="matplotlib.axis_1">
    <g id="xtick_1">
     <g id="line2d_1">
      <path clip-path="url(#pfa1f8ae03d)" d="M 104.727273 555.408 
L 104.727273 29.232 
" style="fill:none;stroke:#b0b0b0;stroke-linecap:square;stroke-width:0.8;"/>
     </g>
     <g id="line2d_2">
      <defs>
       <path d="M 0 0 
L 0 3.5 
" id="m02bf1ea3b7" style="stroke:#000000;stroke-width:0.8;"/>
      </defs>
      <g>
       <use style="stroke:#000000;stroke-width:0.8;" x="104.727273" xlink:href="#m02bf1ea3b7" y="555.408"/>
      </g>
     </g>
     <g id="text_1">
      <!-- 0 -->
      <defs>
       <path d="M 31.78125 66.40625 
Q 24.171875 66.40625 20.328125 58.90625 
Q 16.5 51.421875 16.5 36.375 
Q 16.5 21.390625 20.328125 13.890625 
Q 24.171875 6.390625 31.78125 6.390625 
Q 39.453125 6.390625 43.28125 13.890625 
Q 47.125 21.390625 47.125 36.375 
Q 47.125 51.421875 43.28125 58.90625 
Q 39.453125 66.40625 31.78125 66.40625 
z
M 31.78125 74.21875 
Q 44.046875 74.21875 50.515625 64.515625 
Q 56.984375 54.828125 56.984375 36.375 
Q 56.984375 17.96875 50.515625 8.265625 
Q 44.046875 -1.421875 31.78125 -1.421875 
Q 19.53125 -1.421875 13.0625 8.265625 
Q 6.59375 17.96875 6.59375 36.375 
Q 6.59375 54.828125 13.0625 64.515625 
Q 19.53125 74.21875 31.78125 74.21875 
z
" id="DejaVuSans-48"/>
      </defs>
      <g transform="translate(101.546023 570.006437)scale(0.1 -0.1)">
       <use xlink:href="#DejaVuSans-48"/>
      </g>
     </g>
    </g>
    <g id="xtick_2">
     <g id="line2d_3">
      <path clip-path="url(#pfa1f8ae03d)" d="M 293.236364 555.408 
L 293.236364 29.232 
" style="fill:none;stroke:#b0b0b0;stroke-linecap:square;stroke-width:0.8;"/>
     </g>
     <g id="line2d_4">
      <g>
       <use style="stroke:#000000;stroke-width:0.8;" x="293.236364" xlink:href="#m02bf1ea3b7" y="555.408"/>
      </g>
     </g>
     <g id="text_2">
      <!-- 10 -->
      <defs>
       <path d="M 12.40625 8.296875 
L 28.515625 8.296875 
L 28.515625 63.921875 
L 10.984375 60.40625 
L 10.984375 69.390625 
L 28.421875 72.90625 
L 38.28125 72.90625 
L 38.28125 8.296875 
L 54.390625 8.296875 
L 54.390625 0 
L 12.40625 0 
z
" id="DejaVuSans-49"/>
      </defs>
      <g transform="translate(286.873864 570.006437)scale(0.1 -0.1)">
       <use xlink:href="#DejaVuSans-49"/>
       <use x="63.623047" xlink:href="#DejaVuSans-48"/>
      </g>
     </g>
    </g>
    <g id="xtick_3">
     <g id="line2d_5">
      <path clip-path="url(#pfa1f8ae03d)" d="M 481.745455 555.408 
L 481.745455 29.232 
" style="fill:none;stroke:#b0b0b0;stroke-linecap:square;stroke-width:0.8;"/>
     </g>
     <g id="line2d_6">
      <g>
       <use style="stroke:#000000;stroke-width:0.8;" x="481.745455" xlink:href="#m02bf1ea3b7" y="555.408"/>
      </g>
     </g>
     <g id="text_3">
      <!-- 20 -->
      <defs>
       <path d="M 19.1875 8.296875 
L 53.609375 8.296875 
L 53.609375 0 
L 7.328125 0 
L 7.328125 8.296875 
Q 12.9375 14.109375 22.625 23.890625 
Q 32.328125 33.6875 34.8125 36.53125 
Q 39.546875 41.84375 41.421875 45.53125 
Q 43.3125 49.21875 43.3125 52.78125 
Q 43.3125 58.59375 39.234375 62.25 
Q 35.15625 65.921875 28.609375 65.921875 
Q 23.96875 65.921875 18.8125 64.3125 
Q 13.671875 62.703125 7.8125 59.421875 
L 7.8125 69.390625 
Q 13.765625 71.78125 18.9375 73 
Q 24.125 74.21875 28.421875 74.21875 
Q 39.75 74.21875 46.484375 68.546875 
Q 53.21875 62.890625 53.21875 53.421875 
Q 53.21875 48.921875 51.53125 44.890625 
Q 49.859375 40.875 45.40625 35.40625 
Q 44.1875 33.984375 37.640625 27.21875 
Q 31.109375 20.453125 19.1875 8.296875 
z
" id="DejaVuSans-50"/>
      </defs>
      <g transform="translate(475.382955 570.006437)scale(0.1 -0.1)">
       <use xlink:href="#DejaVuSans-50"/>
       <use x="63.623047" xlink:href="#DejaVuSans-48"/>
      </g>
     </g>
    </g>
    <g id="xtick_4">
     <g id="line2d_7">
      <path clip-path="url(#pfa1f8ae03d)" d="M 670.254545 555.408 
L 670.254545 29.232 
" style="fill:none;stroke:#b0b0b0;stroke-linecap:square;stroke-width:0.8;"/>
     </g>
     <g id="line2d_8">
      <g>
       <use style="stroke:#000000;stroke-width:0.8;" x="670.254545" xlink:href="#m02bf1ea3b7" y="555.408"/>
      </g>
     </g>
     <g id="text_4">
      <!-- 30 -->
      <defs>
       <path d="M 40.578125 39.3125 
Q 47.65625 37.796875 51.625 33 
Q 55.609375 28.21875 55.609375 21.1875 
Q 55.609375 10.40625 48.1875 4.484375 
Q 40.765625 -1.421875 27.09375 -1.421875 
Q 22.515625 -1.421875 17.65625 -0.515625 
Q 12.796875 0.390625 7.625 2.203125 
L 7.625 11.71875 
Q 11.71875 9.328125 16.59375 8.109375 
Q 21.484375 6.890625 26.8125 6.890625 
Q 36.078125 6.890625 40.9375 10.546875 
Q 45.796875 14.203125 45.796875 21.1875 
Q 45.796875 27.640625 41.28125 31.265625 
Q 36.765625 34.90625 28.71875 34.90625 
L 20.21875 34.90625 
L 20.21875 43.015625 
L 29.109375 43.015625 
Q 36.375 43.015625 40.234375 45.921875 
Q 44.09375 48.828125 44.09375 54.296875 
Q 44.09375 59.90625 40.109375 62.90625 
Q 36.140625 65.921875 28.71875 65.921875 
Q 24.65625 65.921875 20.015625 65.03125 
Q 15.375 64.15625 9.8125 62.3125 
L 9.8125 71.09375 
Q 15.4375 72.65625 20.34375 73.4375 
Q 25.25 74.21875 29.59375 74.21875 
Q 40.828125 74.21875 47.359375 69.109375 
Q 53.90625 64.015625 53.90625 55.328125 
Q 53.90625 49.265625 50.4375 45.09375 
Q 46.96875 40.921875 40.578125 39.3125 
z
" id="DejaVuSans-51"/>
      </defs>
      <g transform="translate(663.892045 570.006437)scale(0.1 -0.1)">
       <use xlink:href="#DejaVuSans-51"/>
       <use x="63.623047" xlink:href="#DejaVuSans-48"/>
      </g>
     </g>
    </g>
    <g id="xtick_5">
     <g id="line2d_9">
      <path clip-path="url(#pfa1f8ae03d)" d="M 858.763636 555.408 
L 858.763636 29.232 
" style="fill:none;stroke:#b0b0b0;stroke-linecap:square;stroke-width:0.8;"/>
     </g>
     <g id="line2d_10">
      <g>
       <use style="stroke:#000000;stroke-width:0.8;" x="858.763636" xlink:href="#m02bf1ea3b7" y="555.408"/>
      </g>
     </g>
     <g id="text_5">
      <!-- 40 -->
      <defs>
       <path d="M 37.796875 64.3125 
L 12.890625 25.390625 
L 37.796875 25.390625 
z
M 35.203125 72.90625 
L 47.609375 72.90625 
L 47.609375 25.390625 
L 58.015625 25.390625 
L 58.015625 17.1875 
L 47.609375 17.1875 
L 47.609375 0 
L 37.796875 0 
L 37.796875 17.1875 
L 4.890625 17.1875 
L 4.890625 26.703125 
z
" id="DejaVuSans-52"/>
      </defs>
      <g transform="translate(852.401136 570.006437)scale(0.1 -0.1)">
       <use xlink:href="#DejaVuSans-52"/>
       <use x="63.623047" xlink:href="#DejaVuSans-48"/>
      </g>
     </g>
    </g>
    <g id="xtick_6">
     <g id="line2d_11">
      <path clip-path="url(#pfa1f8ae03d)" d="M 1047.272727 555.408 
L 1047.272727 29.232 
" style="fill:none;stroke:#b0b0b0;stroke-linecap:square;stroke-width:0.8;"/>
     </g>
     <g id="line2d_12">
      <g>
       <use style="stroke:#000000;stroke-width:0.8;" x="1047.272727" xlink:href="#m02bf1ea3b7" y="555.408"/>
      </g>
     </g>
     <g id="text_6">
      <!-- 50 -->
      <defs>
       <path d="M 10.796875 72.90625 
L 49.515625 72.90625 
L 49.515625 64.59375 
L 19.828125 64.59375 
L 19.828125 46.734375 
Q 21.96875 47.46875 24.109375 47.828125 
Q 26.265625 48.1875 28.421875 48.1875 
Q 40.625 48.1875 47.75 41.5 
Q 54.890625 34.8125 54.890625 23.390625 
Q 54.890625 11.625 47.5625 5.09375 
Q 40.234375 -1.421875 26.90625 -1.421875 
Q 22.3125 -1.421875 17.546875 -0.640625 
Q 12.796875 0.140625 7.71875 1.703125 
L 7.71875 11.625 
Q 12.109375 9.234375 16.796875 8.0625 
Q 21.484375 6.890625 26.703125 6.890625 
Q 35.15625 6.890625 40.078125 11.328125 
Q 45.015625 15.765625 45.015625 23.390625 
Q 45.015625 31 40.078125 35.4375 
Q 35.15625 39.890625 26.703125 39.890625 
Q 22.75 39.890625 18.8125 39.015625 
Q 14.890625 38.140625 10.796875 36.28125 
z
" id="DejaVuSans-53"/>
      </defs>
      <g transform="translate(1040.910227 570.006437)scale(0.1 -0.1)">
       <use xlink:href="#DejaVuSans-53"/>
       <use x="63.623047" xlink:href="#DejaVuSans-48"/>
      </g>
     </g>
    </g>
    <g id="text_7">
     <!-- čas (s) -->
     <defs>
      <path d="M 48.78125 52.59375 
L 48.78125 44.1875 
Q 44.96875 46.296875 41.140625 47.34375 
Q 37.3125 48.390625 33.40625 48.390625 
Q 24.65625 48.390625 19.8125 42.84375 
Q 14.984375 37.3125 14.984375 27.296875 
Q 14.984375 17.28125 19.8125 11.734375 
Q 24.65625 6.203125 33.40625 6.203125 
Q 37.3125 6.203125 41.140625 7.25 
Q 44.96875 8.296875 48.78125 10.40625 
L 48.78125 2.09375 
Q 45.015625 0.34375 40.984375 -0.53125 
Q 36.96875 -1.421875 32.421875 -1.421875 
Q 20.0625 -1.421875 12.78125 6.34375 
Q 5.515625 14.109375 5.515625 27.296875 
Q 5.515625 40.671875 12.859375 48.328125 
Q 20.21875 56 33.015625 56 
Q 37.15625 56 41.109375 55.140625 
Q 45.0625 54.296875 48.78125 52.59375 
z
M 28.140625 61.625 
L 16.171875 79.984375 
L 22.96875 79.984375 
L 31.75 68.015625 
L 40.546875 79.984375 
L 47.328125 79.984375 
L 35.359375 61.625 
z
" id="DejaVuSans-269"/>
      <path d="M 34.28125 27.484375 
Q 23.390625 27.484375 19.1875 25 
Q 14.984375 22.515625 14.984375 16.5 
Q 14.984375 11.71875 18.140625 8.90625 
Q 21.296875 6.109375 26.703125 6.109375 
Q 34.1875 6.109375 38.703125 11.40625 
Q 43.21875 16.703125 43.21875 25.484375 
L 43.21875 27.484375 
z
M 52.203125 31.203125 
L 52.203125 0 
L 43.21875 0 
L 43.21875 8.296875 
Q 40.140625 3.328125 35.546875 0.953125 
Q 30.953125 -1.421875 24.3125 -1.421875 
Q 15.921875 -1.421875 10.953125 3.296875 
Q 6 8.015625 6 15.921875 
Q 6 25.140625 12.171875 29.828125 
Q 18.359375 34.515625 30.609375 34.515625 
L 43.21875 34.515625 
L 43.21875 35.40625 
Q 43.21875 41.609375 39.140625 45 
Q 35.0625 48.390625 27.6875 48.390625 
Q 23 48.390625 18.546875 47.265625 
Q 14.109375 46.140625 10.015625 43.890625 
L 10.015625 52.203125 
Q 14.9375 54.109375 19.578125 55.046875 
Q 24.21875 56 28.609375 56 
Q 40.484375 56 46.34375 49.84375 
Q 52.203125 43.703125 52.203125 31.203125 
z
" id="DejaVuSans-97"/>
      <path d="M 44.28125 53.078125 
L 44.28125 44.578125 
Q 40.484375 46.53125 36.375 47.5 
Q 32.28125 48.484375 27.875 48.484375 
Q 21.1875 48.484375 17.84375 46.4375 
Q 14.5 44.390625 14.5 40.28125 
Q 14.5 37.15625 16.890625 35.375 
Q 19.28125 33.59375 26.515625 31.984375 
L 29.59375 31.296875 
Q 39.15625 29.25 43.1875 25.515625 
Q 47.21875 21.78125 47.21875 15.09375 
Q 47.21875 7.46875 41.1875 3.015625 
Q 35.15625 -1.421875 24.609375 -1.421875 
Q 20.21875 -1.421875 15.453125 -0.5625 
Q 10.6875 0.296875 5.421875 2 
L 5.421875 11.28125 
Q 10.40625 8.6875 15.234375 7.390625 
Q 20.0625 6.109375 24.8125 6.109375 
Q 31.15625 6.109375 34.5625 8.28125 
Q 37.984375 10.453125 37.984375 14.40625 
Q 37.984375 18.0625 35.515625 20.015625 
Q 33.0625 21.96875 24.703125 23.78125 
L 21.578125 24.515625 
Q 13.234375 26.265625 9.515625 29.90625 
Q 5.8125 33.546875 5.8125 39.890625 
Q 5.8125 47.609375 11.28125 51.796875 
Q 16.75 56 26.8125 56 
Q 31.78125 56 36.171875 55.265625 
Q 40.578125 54.546875 44.28125 53.078125 
z
" id="DejaVuSans-115"/>
      <path id="DejaVuSans-32"/>
      <path d="M 31 75.875 
Q 24.46875 64.65625 21.28125 53.65625 
Q 18.109375 42.671875 18.109375 31.390625 
Q 18.109375 20.125 21.3125 9.0625 
Q 24.515625 -2 31 -13.1875 
L 23.1875 -13.1875 
Q 15.875 -1.703125 12.234375 9.375 
Q 8.59375 20.453125 8.59375 31.390625 
Q 8.59375 42.28125 12.203125 53.3125 
Q 15.828125 64.359375 23.1875 75.875 
z
" id="DejaVuSans-40"/>
      <path d="M 8.015625 75.875 
L 15.828125 75.875 
Q 23.140625 64.359375 26.78125 53.3125 
Q 30.421875 42.28125 30.421875 31.390625 
Q 30.421875 20.453125 26.78125 9.375 
Q 23.140625 -1.703125 15.828125 -13.1875 
L 8.015625 -13.1875 
Q 14.5 -2 17.703125 9.0625 
Q 20.90625 20.125 20.90625 31.390625 
Q 20.90625 42.671875 17.703125 53.65625 
Q 14.5 64.65625 8.015625 75.875 
z
" id="DejaVuSans-41"/>
     </defs>
     <g transform="translate(559.486719 583.684562)scale(0.1 -0.1)">
      <use xlink:href="#DejaVuSans-269"/>
      <use x="54.980469" xlink:href="#DejaVuSans-97"/>
      <use x="116.259766" xlink:href="#DejaVuSans-115"/>
      <use x="168.359375" xlink:href="#DejaVuSans-32"/>
      <use x="200.146484" xlink:href="#DejaVuSans-40"/>
      <use x="239.160156" xlink:href="#DejaVuSans-115"/>
      <use x="291.259766" xlink:href="#DejaVuSans-41"/>
     </g>
    </g>
   </g>
   <g id="matplotlib.axis_2">
    <g id="ytick_1">
     <g id="line2d_13">
      <path clip-path="url(#pfa1f8ae03d)" d="M 57.6 518.815901 
L 1094.4 518.815901 
" style="fill:none;stroke:#b0b0b0;stroke-linecap:square;stroke-width:0.8;"/>
     </g>
     <g id="line2d_14">
      <defs>
       <path d="M 0 0 
L -3.5 0 
" id="m5c0a078388" style="stroke:#000000;stroke-width:0.8;"/>
      </defs>
      <g>
       <use style="stroke:#000000;stroke-width:0.8;" x="57.6" xlink:href="#m5c0a078388" y="518.815901"/>
      </g>
     </g>
     <g id="text_8">
      <!-- −20 -->
      <defs>
       <path d="M 10.59375 35.5 
L 73.1875 35.5 
L 73.1875 27.203125 
L 10.59375 27.203125 
z
" id="DejaVuSans-8722"/>
      </defs>
      <g transform="translate(29.495313 522.615119)scale(0.1 -0.1)">
       <use xlink:href="#DejaVuSans-8722"/>
       <use x="83.789062" xlink:href="#DejaVuSans-50"/>
       <use x="147.412109" xlink:href="#DejaVuSans-48"/>
      </g>
     </g>
    </g>
    <g id="ytick_2">
     <g id="line2d_15">
      <path clip-path="url(#pfa1f8ae03d)" d="M 57.6 455.313448 
L 1094.4 455.313448 
" style="fill:none;stroke:#b0b0b0;stroke-linecap:square;stroke-width:0.8;"/>
     </g>
     <g id="line2d_16">
      <g>
       <use style="stroke:#000000;stroke-width:0.8;" x="57.6" xlink:href="#m5c0a078388" y="455.313448"/>
      </g>
     </g>
     <g id="text_9">
      <!-- −10 -->
      <g transform="translate(29.495313 459.112667)scale(0.1 -0.1)">
       <use xlink:href="#DejaVuSans-8722"/>
       <use x="83.789062" xlink:href="#DejaVuSans-49"/>
       <use x="147.412109" xlink:href="#DejaVuSans-48"/>
      </g>
     </g>
    </g>
    <g id="ytick_3">
     <g id="line2d_17">
      <path clip-path="url(#pfa1f8ae03d)" d="M 57.6 391.810996 
L 1094.4 391.810996 
" style="fill:none;stroke:#b0b0b0;stroke-linecap:square;stroke-width:0.8;"/>
     </g>
     <g id="line2d_18">
      <g>
       <use style="stroke:#000000;stroke-width:0.8;" x="57.6" xlink:href="#m5c0a078388" y="391.810996"/>
      </g>
     </g>
     <g id="text_10">
      <!-- 0 -->
      <g transform="translate(44.2375 395.610214)scale(0.1 -0.1)">
       <use xlink:href="#DejaVuSans-48"/>
      </g>
     </g>
    </g>
    <g id="ytick_4">
     <g id="line2d_19">
      <path clip-path="url(#pfa1f8ae03d)" d="M 57.6 328.308543 
L 1094.4 328.308543 
" style="fill:none;stroke:#b0b0b0;stroke-linecap:square;stroke-width:0.8;"/>
     </g>
     <g id="line2d_20">
      <g>
       <use style="stroke:#000000;stroke-width:0.8;" x="57.6" xlink:href="#m5c0a078388" y="328.308543"/>
      </g>
     </g>
     <g id="text_11">
      <!-- 10 -->
      <g transform="translate(37.875 332.107762)scale(0.1 -0.1)">
       <use xlink:href="#DejaVuSans-49"/>
       <use x="63.623047" xlink:href="#DejaVuSans-48"/>
      </g>
     </g>
    </g>
    <g id="ytick_5">
     <g id="line2d_21">
      <path clip-path="url(#pfa1f8ae03d)" d="M 57.6 264.806091 
L 1094.4 264.806091 
" style="fill:none;stroke:#b0b0b0;stroke-linecap:square;stroke-width:0.8;"/>
     </g>
     <g id="line2d_22">
      <g>
       <use style="stroke:#000000;stroke-width:0.8;" x="57.6" xlink:href="#m5c0a078388" y="264.806091"/>
      </g>
     </g>
     <g id="text_12">
      <!-- 20 -->
      <g transform="translate(37.875 268.605309)scale(0.1 -0.1)">
       <use xlink:href="#DejaVuSans-50"/>
       <use x="63.623047" xlink:href="#DejaVuSans-48"/>
      </g>
     </g>
    </g>
    <g id="ytick_6">
     <g id="line2d_23">
      <path clip-path="url(#pfa1f8ae03d)" d="M 57.6 201.303638 
L 1094.4 201.303638 
" style="fill:none;stroke:#b0b0b0;stroke-linecap:square;stroke-width:0.8;"/>
     </g>
     <g id="line2d_24">
      <g>
       <use style="stroke:#000000;stroke-width:0.8;" x="57.6" xlink:href="#m5c0a078388" y="201.303638"/>
      </g>
     </g>
     <g id="text_13">
      <!-- 30 -->
      <g transform="translate(37.875 205.102857)scale(0.1 -0.1)">
       <use xlink:href="#DejaVuSans-51"/>
       <use x="63.623047" xlink:href="#DejaVuSans-48"/>
      </g>
     </g>
    </g>
    <g id="ytick_7">
     <g id="line2d_25">
      <path clip-path="url(#pfa1f8ae03d)" d="M 57.6 137.801186 
L 1094.4 137.801186 
" style="fill:none;stroke:#b0b0b0;stroke-linecap:square;stroke-width:0.8;"/>
     </g>
     <g id="line2d_26">
      <g>
       <use style="stroke:#000000;stroke-width:0.8;" x="57.6" xlink:href="#m5c0a078388" y="137.801186"/>
      </g>
     </g>
     <g id="text_14">
      <!-- 40 -->
      <g transform="translate(37.875 141.600404)scale(0.1 -0.1)">
       <use xlink:href="#DejaVuSans-52"/>
       <use x="63.623047" xlink:href="#DejaVuSans-48"/>
      </g>
     </g>
    </g>
    <g id="ytick_8">
     <g id="line2d_27">
      <path clip-path="url(#pfa1f8ae03d)" d="M 57.6 74.298733 
L 1094.4 74.298733 
" style="fill:none;stroke:#b0b0b0;stroke-linecap:square;stroke-width:0.8;"/>
     </g>
     <g id="line2d_28">
      <g>
       <use style="stroke:#000000;stroke-width:0.8;" x="57.6" xlink:href="#m5c0a078388" y="74.298733"/>
      </g>
     </g>
     <g id="text_15">
      <!-- 50 -->
      <g transform="translate(37.875 78.097952)scale(0.1 -0.1)">
       <use xlink:href="#DejaVuSans-53"/>
       <use x="63.623047" xlink:href="#DejaVuSans-48"/>
      </g>
     </g>
    </g>
    <g id="text_16">
     <!-- height ($m$), velocity ($m/s$), acceleration ($m/s^2$) -->
     <defs>
      <path d="M 54.890625 33.015625 
L 54.890625 0 
L 45.90625 0 
L 45.90625 32.71875 
Q 45.90625 40.484375 42.875 44.328125 
Q 39.84375 48.1875 33.796875 48.1875 
Q 26.515625 48.1875 22.3125 43.546875 
Q 18.109375 38.921875 18.109375 30.90625 
L 18.109375 0 
L 9.078125 0 
L 9.078125 75.984375 
L 18.109375 75.984375 
L 18.109375 46.1875 
Q 21.34375 51.125 25.703125 53.5625 
Q 30.078125 56 35.796875 56 
Q 45.21875 56 50.046875 50.171875 
Q 54.890625 44.34375 54.890625 33.015625 
z
" id="DejaVuSans-104"/>
      <path d="M 56.203125 29.59375 
L 56.203125 25.203125 
L 14.890625 25.203125 
Q 15.484375 15.921875 20.484375 11.0625 
Q 25.484375 6.203125 34.421875 6.203125 
Q 39.59375 6.203125 44.453125 7.46875 
Q 49.3125 8.734375 54.109375 11.28125 
L 54.109375 2.78125 
Q 49.265625 0.734375 44.1875 -0.34375 
Q 39.109375 -1.421875 33.890625 -1.421875 
Q 20.796875 -1.421875 13.15625 6.1875 
Q 5.515625 13.8125 5.515625 26.8125 
Q 5.515625 40.234375 12.765625 48.109375 
Q 20.015625 56 32.328125 56 
Q 43.359375 56 49.78125 48.890625 
Q 56.203125 41.796875 56.203125 29.59375 
z
M 47.21875 32.234375 
Q 47.125 39.59375 43.09375 43.984375 
Q 39.0625 48.390625 32.421875 48.390625 
Q 24.90625 48.390625 20.390625 44.140625 
Q 15.875 39.890625 15.1875 32.171875 
z
" id="DejaVuSans-101"/>
      <path d="M 9.421875 54.6875 
L 18.40625 54.6875 
L 18.40625 0 
L 9.421875 0 
z
M 9.421875 75.984375 
L 18.40625 75.984375 
L 18.40625 64.59375 
L 9.421875 64.59375 
z
" id="DejaVuSans-105"/>
      <path d="M 45.40625 27.984375 
Q 45.40625 37.75 41.375 43.109375 
Q 37.359375 48.484375 30.078125 48.484375 
Q 22.859375 48.484375 18.828125 43.109375 
Q 14.796875 37.75 14.796875 27.984375 
Q 14.796875 18.265625 18.828125 12.890625 
Q 22.859375 7.515625 30.078125 7.515625 
Q 37.359375 7.515625 41.375 12.890625 
Q 45.40625 18.265625 45.40625 27.984375 
z
M 54.390625 6.78125 
Q 54.390625 -7.171875 48.1875 -13.984375 
Q 42 -20.796875 29.203125 -20.796875 
Q 24.46875 -20.796875 20.265625 -20.09375 
Q 16.0625 -19.390625 12.109375 -17.921875 
L 12.109375 -9.1875 
Q 16.0625 -11.328125 19.921875 -12.34375 
Q 23.78125 -13.375 27.78125 -13.375 
Q 36.625 -13.375 41.015625 -8.765625 
Q 45.40625 -4.15625 45.40625 5.171875 
L 45.40625 9.625 
Q 42.625 4.78125 38.28125 2.390625 
Q 33.9375 0 27.875 0 
Q 17.828125 0 11.671875 7.65625 
Q 5.515625 15.328125 5.515625 27.984375 
Q 5.515625 40.671875 11.671875 48.328125 
Q 17.828125 56 27.875 56 
Q 33.9375 56 38.28125 53.609375 
Q 42.625 51.21875 45.40625 46.390625 
L 45.40625 54.6875 
L 54.390625 54.6875 
z
" id="DejaVuSans-103"/>
      <path d="M 18.3125 70.21875 
L 18.3125 54.6875 
L 36.8125 54.6875 
L 36.8125 47.703125 
L 18.3125 47.703125 
L 18.3125 18.015625 
Q 18.3125 11.328125 20.140625 9.421875 
Q 21.96875 7.515625 27.59375 7.515625 
L 36.8125 7.515625 
L 36.8125 0 
L 27.59375 0 
Q 17.1875 0 13.234375 3.875 
Q 9.28125 7.765625 9.28125 18.015625 
L 9.28125 47.703125 
L 2.6875 47.703125 
L 2.6875 54.6875 
L 9.28125 54.6875 
L 9.28125 70.21875 
z
" id="DejaVuSans-116"/>
      <path d="M 89.796875 33.015625 
L 83.40625 0 
L 74.421875 0 
L 80.71875 32.71875 
Q 81.109375 34.8125 81.296875 36.328125 
Q 81.5 37.84375 81.5 38.921875 
Q 81.5 43.3125 79.046875 45.75 
Q 76.609375 48.1875 72.21875 48.1875 
Q 65.671875 48.1875 60.546875 43.28125 
Q 55.421875 38.375 53.90625 30.515625 
L 47.90625 0 
L 38.921875 0 
L 45.3125 32.71875 
Q 45.703125 34.515625 45.890625 36.046875 
Q 46.09375 37.59375 46.09375 38.8125 
Q 46.09375 43.265625 43.65625 45.71875 
Q 41.21875 48.1875 36.921875 48.1875 
Q 30.28125 48.1875 25.140625 43.28125 
Q 20.015625 38.375 18.5 30.515625 
L 12.5 0 
L 3.515625 0 
L 14.203125 54.6875 
L 23.1875 54.6875 
L 21.484375 46.1875 
Q 25.140625 50.984375 30.046875 53.484375 
Q 34.96875 56 40.578125 56 
Q 46.53125 56 50.359375 52.875 
Q 54.203125 49.75 54.984375 44.1875 
Q 59.078125 49.953125 64.46875 52.96875 
Q 69.875 56 75.875 56 
Q 82.90625 56 86.734375 51.953125 
Q 90.578125 47.90625 90.578125 40.484375 
Q 90.578125 38.875 90.375 36.9375 
Q 90.1875 35.015625 89.796875 33.015625 
z
" id="DejaVuSans-Oblique-109"/>
      <path d="M 11.71875 12.40625 
L 22.015625 12.40625 
L 22.015625 4 
L 14.015625 -11.625 
L 7.71875 -11.625 
L 11.71875 4 
z
" id="DejaVuSans-44"/>
      <path d="M 2.984375 54.6875 
L 12.5 54.6875 
L 29.59375 8.796875 
L 46.6875 54.6875 
L 56.203125 54.6875 
L 35.6875 0 
L 23.484375 0 
z
" id="DejaVuSans-118"/>
      <path d="M 9.421875 75.984375 
L 18.40625 75.984375 
L 18.40625 0 
L 9.421875 0 
z
" id="DejaVuSans-108"/>
      <path d="M 30.609375 48.390625 
Q 23.390625 48.390625 19.1875 42.75 
Q 14.984375 37.109375 14.984375 27.296875 
Q 14.984375 17.484375 19.15625 11.84375 
Q 23.34375 6.203125 30.609375 6.203125 
Q 37.796875 6.203125 41.984375 11.859375 
Q 46.1875 17.53125 46.1875 27.296875 
Q 46.1875 37.015625 41.984375 42.703125 
Q 37.796875 48.390625 30.609375 48.390625 
z
M 30.609375 56 
Q 42.328125 56 49.015625 48.375 
Q 55.71875 40.765625 55.71875 27.296875 
Q 55.71875 13.875 49.015625 6.21875 
Q 42.328125 -1.421875 30.609375 -1.421875 
Q 18.84375 -1.421875 12.171875 6.21875 
Q 5.515625 13.875 5.515625 27.296875 
Q 5.515625 40.765625 12.171875 48.375 
Q 18.84375 56 30.609375 56 
z
" id="DejaVuSans-111"/>
      <path d="M 48.78125 52.59375 
L 48.78125 44.1875 
Q 44.96875 46.296875 41.140625 47.34375 
Q 37.3125 48.390625 33.40625 48.390625 
Q 24.65625 48.390625 19.8125 42.84375 
Q 14.984375 37.3125 14.984375 27.296875 
Q 14.984375 17.28125 19.8125 11.734375 
Q 24.65625 6.203125 33.40625 6.203125 
Q 37.3125 6.203125 41.140625 7.25 
Q 44.96875 8.296875 48.78125 10.40625 
L 48.78125 2.09375 
Q 45.015625 0.34375 40.984375 -0.53125 
Q 36.96875 -1.421875 32.421875 -1.421875 
Q 20.0625 -1.421875 12.78125 6.34375 
Q 5.515625 14.109375 5.515625 27.296875 
Q 5.515625 40.671875 12.859375 48.328125 
Q 20.21875 56 33.015625 56 
Q 37.15625 56 41.109375 55.140625 
Q 45.0625 54.296875 48.78125 52.59375 
z
" id="DejaVuSans-99"/>
      <path d="M 32.171875 -5.078125 
Q 28.375 -14.84375 24.75 -17.8125 
Q 21.140625 -20.796875 15.09375 -20.796875 
L 7.90625 -20.796875 
L 7.90625 -13.28125 
L 13.1875 -13.28125 
Q 16.890625 -13.28125 18.9375 -11.515625 
Q 21 -9.765625 23.484375 -3.21875 
L 25.09375 0.875 
L 2.984375 54.6875 
L 12.5 54.6875 
L 29.59375 11.921875 
L 46.6875 54.6875 
L 56.203125 54.6875 
z
" id="DejaVuSans-121"/>
      <path d="M 25.390625 72.90625 
L 33.6875 72.90625 
L 8.296875 -9.28125 
L 0 -9.28125 
z
" id="DejaVuSans-47"/>
      <path d="M 50 53.078125 
L 48.296875 44.578125 
Q 44.734375 46.53125 40.765625 47.5 
Q 36.8125 48.484375 32.625 48.484375 
Q 25.53125 48.484375 21.453125 46.0625 
Q 17.390625 43.65625 17.390625 39.5 
Q 17.390625 34.671875 26.859375 32.078125 
Q 27.59375 31.890625 27.9375 31.78125 
L 30.8125 30.90625 
Q 39.796875 28.421875 42.796875 25.6875 
Q 45.796875 22.953125 45.796875 18.21875 
Q 45.796875 9.515625 38.890625 4.046875 
Q 31.984375 -1.421875 20.796875 -1.421875 
Q 16.453125 -1.421875 11.671875 -0.578125 
Q 6.890625 0.25 1.125 2 
L 2.875 11.28125 
Q 7.8125 8.734375 12.59375 7.421875 
Q 17.390625 6.109375 21.78125 6.109375 
Q 28.375 6.109375 32.5 8.9375 
Q 36.625 11.765625 36.625 16.109375 
Q 36.625 20.796875 25.78125 23.6875 
L 24.859375 23.921875 
L 21.78125 24.703125 
Q 14.9375 26.515625 11.765625 29.46875 
Q 8.59375 32.421875 8.59375 37.015625 
Q 8.59375 45.75 15.15625 50.875 
Q 21.734375 56 33.015625 56 
Q 37.453125 56 41.671875 55.265625 
Q 45.90625 54.546875 50 53.078125 
z
" id="DejaVuSans-Oblique-115"/>
      <path d="M 41.109375 46.296875 
Q 39.59375 47.171875 37.8125 47.578125 
Q 36.03125 48 33.890625 48 
Q 26.265625 48 22.1875 43.046875 
Q 18.109375 38.09375 18.109375 28.8125 
L 18.109375 0 
L 9.078125 0 
L 9.078125 54.6875 
L 18.109375 54.6875 
L 18.109375 46.1875 
Q 20.953125 51.171875 25.484375 53.578125 
Q 30.03125 56 36.53125 56 
Q 37.453125 56 38.578125 55.875 
Q 39.703125 55.765625 41.0625 55.515625 
z
" id="DejaVuSans-114"/>
      <path d="M 54.890625 33.015625 
L 54.890625 0 
L 45.90625 0 
L 45.90625 32.71875 
Q 45.90625 40.484375 42.875 44.328125 
Q 39.84375 48.1875 33.796875 48.1875 
Q 26.515625 48.1875 22.3125 43.546875 
Q 18.109375 38.921875 18.109375 30.90625 
L 18.109375 0 
L 9.078125 0 
L 9.078125 54.6875 
L 18.109375 54.6875 
L 18.109375 46.1875 
Q 21.34375 51.125 25.703125 53.5625 
Q 30.078125 56 35.796875 56 
Q 45.21875 56 50.046875 50.171875 
Q 54.890625 44.34375 54.890625 33.015625 
z
" id="DejaVuSans-110"/>
     </defs>
     <g transform="translate(23.395312 407.22)rotate(-90)scale(0.1 -0.1)">
      <use transform="translate(0 0.765625)" xlink:href="#DejaVuSans-104"/>
      <use transform="translate(63.378906 0.765625)" xlink:href="#DejaVuSans-101"/>
      <use transform="translate(124.902344 0.765625)" xlink:href="#DejaVuSans-105"/>
      <use transform="translate(152.685547 0.765625)" xlink:href="#DejaVuSans-103"/>
      <use transform="translate(216.162109 0.765625)" xlink:href="#DejaVuSans-104"/>
      <use transform="translate(279.541016 0.765625)" xlink:href="#DejaVuSans-116"/>
      <use transform="translate(318.75 0.765625)" xlink:href="#DejaVuSans-32"/>
      <use transform="translate(350.537109 0.765625)" xlink:href="#DejaVuSans-40"/>
      <use transform="translate(389.550781 0.765625)" xlink:href="#DejaVuSans-Oblique-109"/>
      <use transform="translate(486.962891 0.765625)" xlink:href="#DejaVuSans-41"/>
      <use transform="translate(525.976562 0.765625)" xlink:href="#DejaVuSans-44"/>
      <use transform="translate(557.763672 0.765625)" xlink:href="#DejaVuSans-32"/>
      <use transform="translate(589.550781 0.765625)" xlink:href="#DejaVuSans-118"/>
      <use transform="translate(648.730469 0.765625)" xlink:href="#DejaVuSans-101"/>
      <use transform="translate(710.253906 0.765625)" xlink:href="#DejaVuSans-108"/>
      <use transform="translate(738.037109 0.765625)" xlink:href="#DejaVuSans-111"/>
      <use transform="translate(799.21875 0.765625)" xlink:href="#DejaVuSans-99"/>
      <use transform="translate(854.199219 0.765625)" xlink:href="#DejaVuSans-105"/>
      <use transform="translate(881.982422 0.765625)" xlink:href="#DejaVuSans-116"/>
      <use transform="translate(921.191406 0.765625)" xlink:href="#DejaVuSans-121"/>
      <use transform="translate(980.371094 0.765625)" xlink:href="#DejaVuSans-32"/>
      <use transform="translate(1012.158203 0.765625)" xlink:href="#DejaVuSans-40"/>
      <use transform="translate(1051.171875 0.765625)" xlink:href="#DejaVuSans-Oblique-109"/>
      <use transform="translate(1148.583984 0.765625)" xlink:href="#DejaVuSans-47"/>
      <use transform="translate(1182.275391 0.765625)" xlink:href="#DejaVuSans-Oblique-115"/>
      <use transform="translate(1234.375 0.765625)" xlink:href="#DejaVuSans-41"/>
      <use transform="translate(1273.388672 0.765625)" xlink:href="#DejaVuSans-44"/>
      <use transform="translate(1305.175781 0.765625)" xlink:href="#DejaVuSans-32"/>
      <use transform="translate(1336.962891 0.765625)" xlink:href="#DejaVuSans-97"/>
      <use transform="translate(1398.242188 0.765625)" xlink:href="#DejaVuSans-99"/>
      <use transform="translate(1453.222656 0.765625)" xlink:href="#DejaVuSans-99"/>
      <use transform="translate(1508.203125 0.765625)" xlink:href="#DejaVuSans-101"/>
      <use transform="translate(1569.726562 0.765625)" xlink:href="#DejaVuSans-108"/>
      <use transform="translate(1597.509766 0.765625)" xlink:href="#DejaVuSans-101"/>
      <use transform="translate(1659.033203 0.765625)" xlink:href="#DejaVuSans-114"/>
      <use transform="translate(1700.146484 0.765625)" xlink:href="#DejaVuSans-97"/>
      <use transform="translate(1761.425781 0.765625)" xlink:href="#DejaVuSans-116"/>
      <use transform="translate(1800.634766 0.765625)" xlink:href="#DejaVuSans-105"/>
      <use transform="translate(1828.417969 0.765625)" xlink:href="#DejaVuSans-111"/>
      <use transform="translate(1889.599609 0.765625)" xlink:href="#DejaVuSans-110"/>
      <use transform="translate(1952.978516 0.765625)" xlink:href="#DejaVuSans-32"/>
      <use transform="translate(1984.765625 0.765625)" xlink:href="#DejaVuSans-40"/>
      <use transform="translate(2023.779297 0.765625)" xlink:href="#DejaVuSans-Oblique-109"/>
      <use transform="translate(2121.191406 0.765625)" xlink:href="#DejaVuSans-47"/>
      <use transform="translate(2154.882812 0.765625)" xlink:href="#DejaVuSans-Oblique-115"/>
      <use transform="translate(2211.632318 39.046875)scale(0.7)" xlink:href="#DejaVuSans-50"/>
      <use transform="translate(2258.902826 0.765625)" xlink:href="#DejaVuSans-41"/>
     </g>
    </g>
   </g>
   <g id="line2d_29">
    <path clip-path="url(#pfa1f8ae03d)" d="M 104.727273 391.810996 
L 279.775468 391.920342 
L 283.546027 391.901539 
L 286.185419 391.669947 
L 288.82481 391.204455 
L 292.218313 390.366984 
L 305.980853 386.727934 
L 310.128467 385.913709 
L 313.427706 385.489168 
L 316.632681 385.310368 
L 320.87456 385.054804 
L 323.042632 384.694128 
L 324.927911 384.154447 
L 327.095982 383.287686 
L 330.018165 381.857245 
L 336.333852 378.700412 
L 339.538827 377.393488 
L 342.46101 376.440207 
L 345.194665 375.784918 
L 347.834056 375.386224 
L 350.379183 375.231662 
L 352.830047 375.306861 
L 355.563702 375.629052 
L 359.522789 376.352201 
L 365.461419 377.422034 
L 369.51477 377.916372 
L 373.285329 378.153812 
L 377.527207 378.183872 
L 383.088782 377.981772 
L 388.084772 377.600894 
L 392.326651 377.058604 
L 402.601424 375.60951 
L 415.044268 374.325251 
L 419.380411 373.55342 
L 423.999345 372.49202 
L 430.597823 370.722691 
L 433.802798 369.67611 
L 436.253662 368.640714 
L 438.327469 367.530781 
L 440.684068 365.992903 
L 444.925947 362.88489 
L 448.130922 360.674834 
L 450.676049 359.207646 
L 453.221177 357.999067 
L 455.766304 357.031001 
L 458.405695 356.263364 
L 460.856558 355.776689 
L 463.118894 355.549996 
L 465.286965 355.558609 
L 467.360772 355.794183 
L 470.000164 356.350468 
L 474.996154 357.446218 
L 476.975698 357.625986 
L 479.143769 357.587738 
L 482.160216 357.288957 
L 487.156207 356.78084 
L 490.266918 356.729862 
L 493.471893 356.901143 
L 496.771132 357.298017 
L 499.787579 357.877981 
L 502.521234 358.627505 
L 505.066361 359.55257 
L 512.890271 362.647873 
L 514.587022 362.946141 
L 516.378038 363.013794 
L 518.734637 362.85286 
L 523.5421 362.462324 
L 525.427379 362.572063 
L 527.406923 362.907677 
L 529.48073 363.484351 
L 531.743065 364.354936 
L 534.099665 365.505592 
L 536.362 366.846776 
L 538.530071 368.382789 
L 540.698143 370.197911 
L 542.77195 372.225945 
L 545.222813 374.965461 
L 550.218804 380.615297 
L 552.009819 382.280178 
L 553.612307 383.468795 
L 555.214794 384.389126 
L 557.00581 385.160344 
L 559.079617 385.800694 
L 562.0018 386.439003 
L 566.903527 387.27687 
L 571.145405 387.783707 
L 575.104492 388.034952 
L 578.969315 388.05562 
L 582.739874 387.853912 
L 594.051551 387.067874 
L 601.121348 387.051066 
L 675.118566 387.050458 
L 697.930448 386.89399 
L 701.606742 386.805744 
L 703.963342 386.9701 
L 706.131413 387.349709 
L 709.430652 387.933033 
L 710.938876 387.966977 
L 712.258571 387.770363 
L 713.389739 387.382581 
L 714.520907 386.751156 
L 715.840602 385.725672 
L 717.820146 383.85085 
L 720.553801 381.284268 
L 721.873496 380.339568 
L 722.9104 379.841614 
L 723.85304 379.629494 
L 724.79568 379.664471 
L 725.832583 379.953128 
L 726.963751 380.515753 
L 728.37771 381.496047 
L 730.357254 383.181596 
L 733.750757 386.092737 
L 735.541772 387.29392 
L 737.332788 388.225915 
L 739.123803 388.899872 
L 740.914819 389.326942 
L 742.705834 389.518281 
L 745.062434 389.505288 
L 747.513297 389.554764 
L 748.927256 389.796664 
L 750.152688 390.221761 
L 751.283856 390.846169 
L 752.415023 391.741504 
L 753.546191 392.938409 
L 754.771623 394.574919 
L 756.091318 396.72725 
L 757.505278 399.47542 
L 759.013501 402.902795 
L 760.615989 407.095597 
L 762.407004 412.438279 
L 764.575076 419.677209 
L 768.251371 432.890339 
L 771.644874 444.769279 
L 774.190001 452.817277 
L 777.206448 461.600014 
L 782.768022 476.938371 
L 785.784469 484.809476 
L 787.858277 489.641399 
L 789.555028 493.066202 
L 791.063252 495.61749 
L 793.137059 498.608698 
L 795.305131 501.815672 
L 796.624826 504.160402 
L 797.850258 506.806264 
L 798.981425 509.784154 
L 800.112593 513.395845 
L 801.903609 520.063267 
L 803.60036 526.109209 
L 804.637264 529.020077 
L 805.391376 530.52325 
L 805.956959 531.221681 
L 806.428279 531.478194 
L 806.805335 531.447267 
L 807.182391 531.188665 
L 807.653711 530.520247 
L 808.125031 529.438401 
L 808.690615 527.549338 
L 809.350462 524.460877 
L 810.104574 519.733039 
L 811.047214 512.272378 
L 812.272645 500.588236 
L 814.157925 480.039537 
L 816.89158 450.320203 
L 818.211276 438.422921 
L 819.153915 431.706282 
L 820.002291 427.089607 
L 820.850667 423.681887 
L 821.604779 421.540725 
L 822.264626 420.262227 
L 822.924474 419.461641 
L 823.490058 419.099775 
L 824.055642 418.988174 
L 824.71549 419.112181 
L 825.469602 419.498611 
L 826.789297 420.482138 
L 828.014729 421.304347 
L 828.768841 421.560987 
L 829.522952 421.576117 
L 830.277064 421.374554 
L 831.12544 420.921219 
L 832.162344 420.093588 
L 833.387775 418.81485 
L 835.178791 416.581811 
L 838.572294 412.301541 
L 840.363309 410.476087 
L 842.342852 408.773011 
L 844.88798 406.888338 
L 854.879961 400.018611 
L 856.953768 398.936584 
L 858.933312 398.158222 
L 861.101383 397.545944 
L 863.835038 397.020218 
L 869.396612 396.25607 
L 874.392603 395.730732 
L 877.974634 395.570288 
L 881.933721 395.62706 
L 886.646919 395.926991 
L 895.979052 396.58992 
L 900.880779 396.612837 
L 920.110629 396.524744 
L 925.10662 396.639262 
L 930.008346 396.994678 
L 942.92251 398.084248 
L 945.938958 397.974514 
L 948.955405 397.639875 
L 951.971852 397.080567 
L 955.176827 396.255152 
L 959.795761 394.809642 
L 966.394239 392.760308 
L 969.316423 392.09655 
L 971.767286 391.759515 
L 974.406677 391.637449 
L 978.082972 391.715441 
L 984.492922 391.8588 
L 1047.272727 391.810996 
L 1047.272727 391.810996 
" style="fill:none;stroke:#1f77b4;stroke-linecap:square;stroke-width:1.5;"/>
   </g>
   <g id="line2d_30">
    <path clip-path="url(#pfa1f8ae03d)" d="M 104.727273 391.810996 
L 266.29572 391.699957 
L 269.783487 391.658132 
L 272.894199 391.84913 
L 276.099174 392.272057 
L 277.701661 392.421888 
L 279.209885 392.345531 
L 280.718108 392.058388 
L 282.320596 391.522338 
L 283.923083 390.74833 
L 285.619835 389.669425 
L 287.505114 388.463329 
L 289.29613 387.579006 
L 290.992881 386.976231 
L 292.689633 386.602109 
L 294.386384 386.456639 
L 296.554455 386.53524 
L 300.984862 386.898458 
L 305.321005 387.471601 
L 307.771868 388.007112 
L 310.222731 388.768227 
L 312.767859 389.797401 
L 315.690042 391.021693 
L 316.821209 391.151442 
L 317.952377 391.040502 
L 319.083545 390.688874 
L 320.214712 390.096556 
L 321.440144 389.183268 
L 322.665576 387.987505 
L 324.173799 386.168335 
L 325.587759 384.634993 
L 326.907454 383.510916 
L 328.22715 382.683294 
L 329.452582 382.180234 
L 330.583749 381.94275 
L 331.714917 381.923069 
L 332.846085 382.12119 
L 334.6371 382.736153 
L 337.653547 383.983096 
L 340.669994 385.474003 
L 343.874969 387.316599 
L 348.305376 390.126819 
L 355.092382 394.501252 
L 356.694869 395.098046 
L 358.297357 395.452448 
L 359.805581 395.564578 
L 361.313804 395.461993 
L 363.670403 395.016372 
L 367.723754 394.05747 
L 371.965633 392.821661 
L 375.170608 391.980638 
L 378.375583 391.368869 
L 381.86335 390.942467 
L 385.539645 390.399264 
L 389.21594 389.635106 
L 392.797971 388.893199 
L 394.777514 388.764627 
L 396.757058 388.854857 
L 398.736601 389.163891 
L 404.015383 390.187585 
L 406.183455 390.266012 
L 408.351526 390.129524 
L 410.990917 389.720137 
L 415.986908 388.737397 
L 423.999345 387.087771 
L 427.20432 386.75923 
L 430.126504 386.453024 
L 431.540463 385.997606 
L 432.954423 385.308811 
L 434.462646 384.316862 
L 435.97087 383.059383 
L 437.573357 381.432368 
L 439.364373 379.580988 
L 440.589804 378.681026 
L 441.720972 378.126419 
L 442.757876 377.850895 
L 443.794779 377.798113 
L 444.831683 377.968073 
L 445.868587 378.360774 
L 446.999755 379.043211 
L 449.073562 380.691503 
L 452.749857 383.440303 
L 456.331888 385.849644 
L 459.725391 388.12645 
L 462.270518 390.151746 
L 464.909909 392.549224 
L 468.114884 395.513646 
L 469.151788 396.076309 
L 470.188692 396.389029 
L 471.131331 396.456429 
L 472.073971 396.317266 
L 473.110875 395.925605 
L 474.147778 395.284003 
L 475.278946 394.299016 
L 478.766713 390.902422 
L 479.992145 390.166993 
L 481.217576 389.690782 
L 482.348744 389.48128 
L 483.479912 389.492652 
L 484.611079 389.724897 
L 485.836511 390.218412 
L 490.738237 392.362977 
L 496.01702 394.417387 
L 498.562147 395.560216 
L 501.201538 396.99608 
L 503.84093 398.68721 
L 505.726209 399.86479 
L 506.668849 400.156183 
L 507.611488 400.221938 
L 508.554128 400.062054 
L 509.496768 399.676531 
L 510.533672 398.991842 
L 511.570575 398.034131 
L 512.701743 396.677973 
L 513.927175 394.842138 
L 515.435398 392.544046 
L 516.566566 391.261427 
L 517.603469 390.423091 
L 518.546109 389.941019 
L 519.394485 389.735198 
L 520.242861 389.745417 
L 521.091236 389.971677 
L 521.939612 390.413978 
L 522.882252 391.158804 
L 524.01342 392.380037 
L 526.935603 395.551979 
L 529.763522 398.307153 
L 532.591441 400.753034 
L 535.607888 403.32321 
L 537.870223 405.606305 
L 540.132559 408.204197 
L 542.489158 411.245079 
L 543.620326 412.625227 
L 544.562965 413.405543 
L 545.411341 413.815577 
L 546.165453 413.947618 
L 546.919565 413.860899 
L 547.673676 413.55542 
L 548.522052 412.950268 
L 549.370428 412.068248 
L 550.313068 410.763503 
L 551.349971 408.933488 
L 552.669667 406.075849 
L 554.177891 403.041471 
L 555.59185 400.659505 
L 556.911546 398.840385 
L 558.136977 397.500515 
L 559.268145 396.562269 
L 560.399313 395.910638 
L 561.436216 395.565093 
L 565.112511 394.918924 
L 569.542918 393.946586 
L 574.915964 392.51641 
L 583.682514 390.180232 
L 585.567793 390.046875 
L 587.453073 390.128524 
L 589.338352 390.425179 
L 595.559774 391.665524 
L 598.293429 391.85514 
L 601.592668 391.832834 
L 611.396121 391.806201 
L 643.728664 391.810906 
L 684.167908 391.928635 
L 688.315522 392.084065 
L 690.766386 391.89462 
L 693.217249 391.477922 
L 697.082072 390.744977 
L 698.307503 390.862157 
L 699.532935 391.191367 
L 700.852631 391.783023 
L 702.172326 392.620583 
L 703.586286 393.790847 
L 705.660093 395.587811 
L 706.319941 395.778086 
L 706.979789 395.738929 
L 707.639637 395.470341 
L 708.299484 394.97232 
L 709.053596 394.122217 
L 709.901972 392.807657 
L 710.844612 390.902218 
L 711.881515 388.265431 
L 713.012683 384.742782 
L 715.746338 375.653925 
L 716.50045 374.235954 
L 717.160298 373.46123 
L 717.725882 373.143353 
L 718.197202 373.122551 
L 718.668521 373.323655 
L 719.234105 373.857894 
L 719.799689 374.711676 
L 720.459537 376.111623 
L 721.213649 378.244134 
L 722.062024 381.32224 
L 723.004664 385.585596 
L 725.738319 398.816963 
L 726.775223 402.456747 
L 727.717863 405.057532 
L 728.566238 406.821635 
L 729.32035 407.931142 
L 729.980198 408.547906 
L 730.545782 408.813549 
L 731.111366 408.836412 
L 731.67695 408.616494 
L 732.242533 408.153796 
L 732.902381 407.307135 
L 740.254971 395.967953 
L 742.988626 392.294103 
L 743.742738 391.647724 
L 744.402586 391.367923 
L 744.96817 391.340386 
L 745.533753 391.508814 
L 746.193601 391.952988 
L 746.853449 392.663891 
L 747.607561 393.802957 
L 748.455937 395.500829 
L 749.398576 397.904478 
L 750.43548 401.177209 
L 751.566648 405.498654 
L 753.546191 414.278256 
L 758.070862 433.859443 
L 762.124212 450.473782 
L 763.25538 454.220293 
L 764.19802 456.66074 
L 765.046396 458.327318 
L 765.800507 459.387339 
L 766.460355 459.989527 
L 767.120203 460.288073 
L 767.685787 460.302295 
L 768.251371 460.093434 
L 768.816954 459.661488 
L 769.476802 458.875597 
L 770.230914 457.60563 
L 771.07929 455.702864 
L 772.776041 451.643297 
L 774.095737 449.055578 
L 775.321168 447.10225 
L 776.452336 445.683412 
L 777.48924 444.706848 
L 778.43188 444.088027 
L 779.374519 443.725362 
L 780.222895 443.617977 
L 781.731119 443.542043 
L 782.48523 443.152958 
L 783.239342 442.501085 
L 784.087718 441.453613 
L 785.030358 439.899679 
L 786.067261 437.716101 
L 787.198429 434.767378 
L 788.423861 430.905692 
L 789.743556 425.970906 
L 791.157516 420.675257 
L 791.817364 419.162443 
L 792.382947 418.405814 
L 792.854267 418.156108 
L 793.231323 418.205605 
L 793.608379 418.47667 
L 794.079699 419.127078 
L 794.645283 420.364549 
L 795.305131 422.438345 
L 796.059242 425.639273 
L 796.907618 430.299683 
L 797.850258 436.793468 
L 798.887161 445.536065 
L 800.678177 461.368286 
L 801.149497 463.162131 
L 801.432289 463.623189 
L 801.620817 463.674207 
L 801.809345 463.520142 
L 802.092136 462.904513 
L 802.469192 461.365883 
L 802.940512 458.289002 
L 803.506096 452.90481 
L 804.165944 444.29043 
L 804.920056 431.369177 
L 805.768431 412.910551 
L 806.711071 387.53024 
L 807.747975 353.690121 
L 808.879142 309.698257 
L 810.575894 242.294011 
L 811.518534 214.972792 
L 812.272645 198.623001 
L 812.932493 188.332589 
L 813.498077 182.495293 
L 813.969397 179.734319 
L 814.252189 178.995598 
L 814.440717 178.885561 
L 814.629245 179.081479 
L 814.912037 179.94902 
L 815.289093 182.176584 
L 815.760412 186.682033 
L 816.325996 194.612697 
L 816.985844 207.345374 
L 817.739956 226.486324 
L 818.588332 253.871277 
L 820.285083 312.002155 
L 821.416251 343.165086 
L 822.453154 366.27947 
L 823.395794 382.767472 
L 824.24417 393.921971 
L 824.998282 400.906558 
L 825.563865 404.334969 
L 826.035185 406.006839 
L 826.412241 406.568608 
L 826.600769 406.590918 
L 826.789297 406.440843 
L 827.072089 405.892511 
L 827.449145 404.558059 
L 827.920465 401.920336 
L 828.580313 396.65208 
L 829.805744 387.386765 
L 830.936912 380.360592 
L 831.973816 375.207217 
L 832.916455 371.590828 
L 833.764831 369.206139 
L 834.424679 367.921247 
L 834.990263 367.216781 
L 835.461583 366.90957 
L 835.932902 366.856763 
L 836.404222 367.058361 
L 836.875542 367.514363 
L 837.441126 368.397378 
L 838.383766 370.456837 
L 839.797725 373.232633 
L 841.023157 375.18493 
L 842.154325 376.613375 
L 843.285492 377.683092 
L 844.322396 378.348534 
L 845.265036 378.691908 
L 846.207675 378.786165 
L 847.056051 378.658002 
L 848.94133 378.232362 
L 850.072498 378.261598 
L 851.203666 378.512527 
L 852.334833 378.985149 
L 853.560265 379.747331 
L 854.785697 380.769694 
L 856.105392 382.161673 
L 859.687423 386.220614 
L 861.195647 387.440989 
L 862.609606 388.302101 
L 863.929302 388.85872 
L 865.248998 389.176776 
L 866.568693 389.259375 
L 869.019557 389.375471 
L 871.47042 389.710616 
L 873.921283 390.264812 
L 876.560674 391.094166 
L 879.954177 392.094636 
L 883.34768 392.860138 
L 886.458391 393.342278 
L 888.720727 393.458883 
L 890.983062 393.346408 
L 893.245397 393.004855 
L 895.884788 392.353806 
L 898.335652 391.875162 
L 900.786515 391.623569 
L 903.237378 391.599026 
L 911.909664 391.820908 
L 918.22535 391.657094 
L 920.864741 391.920856 
L 923.504132 392.406024 
L 927.368955 393.162271 
L 931.233778 393.688314 
L 934.344489 393.907631 
L 936.324032 393.800967 
L 938.303576 393.469826 
L 940.283119 392.914208 
L 942.262663 392.134113 
L 955.176827 386.392223 
L 957.250634 385.903128 
L 959.230178 385.657387 
L 961.209721 385.627626 
L 963.000736 385.806712 
L 964.697488 386.197689 
L 966.488503 386.845496 
L 968.279519 387.734769 
L 970.164798 388.931706 
L 973.652565 391.277401 
L 975.255053 391.972027 
L 976.763276 392.384162 
L 978.2715 392.561988 
L 979.779723 392.505504 
L 981.759267 392.158024 
L 984.68145 391.768724 
L 987.509369 391.612029 
L 990.431552 391.676176 
L 995.993127 391.855659 
L 1002.308813 391.819396 
L 1014.657393 391.813838 
L 1047.272727 391.810169 
L 1047.272727 391.810169 
" style="fill:none;stroke:#ff7f0e;stroke-linecap:square;stroke-width:1.5;"/>
   </g>
   <g id="line2d_31">
    <path clip-path="url(#pfa1f8ae03d)" d="M 104.727273 391.810996 
L 290.710089 391.703467 
L 294.669176 391.371932 
L 298.533999 390.823643 
L 302.493086 390.038668 
L 306.734964 388.967058 
L 311.542427 387.510663 
L 318.895017 385.0105 
L 324.833647 382.816471 
L 328.22715 381.322876 
L 331.243597 379.752678 
L 334.260044 377.932116 
L 337.559283 375.67269 
L 341.235578 372.874093 
L 345.665985 369.205453 
L 353.772686 362.1258 
L 359.805581 357.019269 
L 365.178627 352.773858 
L 371.777105 347.864451 
L 390.724163 333.937476 
L 396.662794 329.22118 
L 402.97848 323.901797 
L 410.990917 316.853649 
L 417.495131 310.854784 
L 422.868178 305.59897 
L 427.67564 300.587999 
L 432.388839 295.353143 
L 436.536454 290.420856 
L 440.024221 285.9285 
L 443.134932 281.561453 
L 446.339907 276.668033 
L 449.827674 270.916732 
L 453.881024 263.78501 
L 458.877015 254.523982 
L 478.106865 218.371828 
L 487.816054 200.541368 
L 500.353163 177.453599 
L 505.631945 168.215668 
L 509.968088 161.068559 
L 514.964078 153.291636 
L 534.099665 124.228905 
L 537.587431 119.553821 
L 540.509615 115.988609 
L 543.054742 113.211167 
L 545.411341 110.964147 
L 547.579412 109.198058 
L 549.747484 107.718266 
L 552.009819 106.45022 
L 554.554946 105.290097 
L 557.665657 104.128971 
L 561.719008 102.864544 
L 566.620735 101.569106 
L 572.465101 100.263808 
L 590.846576 96.335926 
L 609.510842 91.632814 
L 710.467556 66.235903 
L 714.897963 65.225304 
L 717.160298 64.472432 
L 719.328369 63.508815 
L 721.684968 62.201528 
L 725.738319 59.62552 
L 728.754766 57.854898 
L 731.111366 56.729865 
L 733.373701 55.895273 
L 735.824564 55.227464 
L 738.841011 54.648914 
L 743.271418 54.056574 
L 751.472384 53.172711 
L 753.640455 53.185364 
L 755.43147 53.418432 
L 757.033958 53.860055 
L 758.447918 54.474001 
L 759.861877 55.333396 
L 761.275837 56.471362 
L 762.689796 57.920379 
L 764.103756 59.709955 
L 765.517715 61.862514 
L 767.025939 64.574946 
L 768.628426 67.936103 
L 770.325178 72.029279 
L 772.210457 77.197795 
L 774.190001 83.282523 
L 776.358072 90.66887 
L 778.714671 99.50812 
L 781.165535 109.567425 
L 783.804926 121.37734 
L 786.632845 135.111103 
L 789.743556 151.359766 
L 793.514115 172.280463 
L 797.473202 195.477576 
L 800.583913 215.000669 
L 803.317568 233.61982 
L 806.899599 259.774207 
L 810.293102 284.090904 
L 812.084118 295.398767 
L 813.592341 303.621203 
L 815.006301 310.118968 
L 816.325996 315.116393 
L 817.551428 318.894329 
L 818.77686 321.956019 
L 820.096555 324.640424 
L 821.604779 327.201433 
L 823.961378 330.702883 
L 827.826201 336.460332 
L 833.953359 345.818723 
L 836.309958 348.921948 
L 838.572294 351.543384 
L 841.023157 354.043717 
L 843.662548 356.420903 
L 846.396203 358.593689 
L 849.129858 360.489215 
L 851.76925 362.050285 
L 854.408641 363.356715 
L 857.330824 364.547267 
L 860.818591 365.71791 
L 865.53179 367.05288 
L 871.281892 368.44948 
L 878.540218 369.957995 
L 889.097783 372.173129 
L 896.733164 374.039446 
L 933.778905 383.580289 
L 940.283119 385.619007 
L 951.971852 389.344816 
L 956.119466 390.388854 
L 959.795761 391.089173 
L 963.377792 391.547586 
L 967.148351 391.802337 
L 971.767286 391.873583 
L 1023.518206 391.831879 
L 1047.272727 391.831909 
L 1047.272727 391.831909 
" style="fill:none;stroke:#2ca02c;stroke-linecap:square;stroke-width:1.5;"/>
   </g>
   <g id="patch_3">
    <path d="M 57.6 555.408 
L 57.6 29.232 
" style="fill:none;stroke:#000000;stroke-linecap:square;stroke-linejoin:miter;stroke-width:0.8;"/>
   </g>
   <g id="patch_4">
    <path d="M 1094.4 555.408 
L 1094.4 29.232 
" style="fill:none;stroke:#000000;stroke-linecap:square;stroke-linejoin:miter;stroke-width:0.8;"/>
   </g>
   <g id="patch_5">
    <path d="M 57.6 555.408 
L 1094.4 555.408 
" style="fill:none;stroke:#000000;stroke-linecap:square;stroke-linejoin:miter;stroke-width:0.8;"/>
   </g>
   <g id="patch_6">
    <path d="M 57.6 29.232 
L 1094.4 29.232 
" style="fill:none;stroke:#000000;stroke-linecap:square;stroke-linejoin:miter;stroke-width:0.8;"/>
   </g>
   <g id="text_17">
    <!-- Maximum height is: 53.3 $m$ -->
    <defs>
     <path d="M 9.8125 72.90625 
L 24.515625 72.90625 
L 43.109375 23.296875 
L 61.8125 72.90625 
L 76.515625 72.90625 
L 76.515625 0 
L 66.890625 0 
L 66.890625 64.015625 
L 48.09375 14.015625 
L 38.1875 14.015625 
L 19.390625 64.015625 
L 19.390625 0 
L 9.8125 0 
z
" id="DejaVuSans-77"/>
     <path d="M 54.890625 54.6875 
L 35.109375 28.078125 
L 55.90625 0 
L 45.3125 0 
L 29.390625 21.484375 
L 13.484375 0 
L 2.875 0 
L 24.125 28.609375 
L 4.6875 54.6875 
L 15.28125 54.6875 
L 29.78125 35.203125 
L 44.28125 54.6875 
z
" id="DejaVuSans-120"/>
     <path d="M 52 44.1875 
Q 55.375 50.25 60.0625 53.125 
Q 64.75 56 71.09375 56 
Q 79.640625 56 84.28125 50.015625 
Q 88.921875 44.046875 88.921875 33.015625 
L 88.921875 0 
L 79.890625 0 
L 79.890625 32.71875 
Q 79.890625 40.578125 77.09375 44.375 
Q 74.3125 48.1875 68.609375 48.1875 
Q 61.625 48.1875 57.5625 43.546875 
Q 53.515625 38.921875 53.515625 30.90625 
L 53.515625 0 
L 44.484375 0 
L 44.484375 32.71875 
Q 44.484375 40.625 41.703125 44.40625 
Q 38.921875 48.1875 33.109375 48.1875 
Q 26.21875 48.1875 22.15625 43.53125 
Q 18.109375 38.875 18.109375 30.90625 
L 18.109375 0 
L 9.078125 0 
L 9.078125 54.6875 
L 18.109375 54.6875 
L 18.109375 46.1875 
Q 21.1875 51.21875 25.484375 53.609375 
Q 29.78125 56 35.6875 56 
Q 41.65625 56 45.828125 52.96875 
Q 50 49.953125 52 44.1875 
z
" id="DejaVuSans-109"/>
     <path d="M 8.5 21.578125 
L 8.5 54.6875 
L 17.484375 54.6875 
L 17.484375 21.921875 
Q 17.484375 14.15625 20.5 10.265625 
Q 23.53125 6.390625 29.59375 6.390625 
Q 36.859375 6.390625 41.078125 11.03125 
Q 45.3125 15.671875 45.3125 23.6875 
L 45.3125 54.6875 
L 54.296875 54.6875 
L 54.296875 0 
L 45.3125 0 
L 45.3125 8.40625 
Q 42.046875 3.421875 37.71875 1 
Q 33.40625 -1.421875 27.6875 -1.421875 
Q 18.265625 -1.421875 13.375 4.4375 
Q 8.5 10.296875 8.5 21.578125 
z
M 31.109375 56 
z
" id="DejaVuSans-117"/>
     <path d="M 11.71875 12.40625 
L 22.015625 12.40625 
L 22.015625 0 
L 11.71875 0 
z
M 11.71875 51.703125 
L 22.015625 51.703125 
L 22.015625 39.3125 
L 11.71875 39.3125 
z
" id="DejaVuSans-58"/>
     <path d="M 10.6875 12.40625 
L 21 12.40625 
L 21 0 
L 10.6875 0 
z
" id="DejaVuSans-46"/>
    </defs>
    <g transform="translate(752.509287 43.623723)scale(0.1 -0.1)">
     <use transform="translate(0 0.015625)" xlink:href="#DejaVuSans-77"/>
     <use transform="translate(86.279297 0.015625)" xlink:href="#DejaVuSans-97"/>
     <use transform="translate(147.558594 0.015625)" xlink:href="#DejaVuSans-120"/>
     <use transform="translate(206.738281 0.015625)" xlink:href="#DejaVuSans-105"/>
     <use transform="translate(234.521484 0.015625)" xlink:href="#DejaVuSans-109"/>
     <use transform="translate(331.933594 0.015625)" xlink:href="#DejaVuSans-117"/>
     <use transform="translate(395.3125 0.015625)" xlink:href="#DejaVuSans-109"/>
     <use transform="translate(492.724609 0.015625)" xlink:href="#DejaVuSans-32"/>
     <use transform="translate(524.511719 0.015625)" xlink:href="#DejaVuSans-104"/>
     <use transform="translate(587.890625 0.015625)" xlink:href="#DejaVuSans-101"/>
     <use transform="translate(649.414062 0.015625)" xlink:href="#DejaVuSans-105"/>
     <use transform="translate(677.197266 0.015625)" xlink:href="#DejaVuSans-103"/>
     <use transform="translate(740.673828 0.015625)" xlink:href="#DejaVuSans-104"/>
     <use transform="translate(804.052734 0.015625)" xlink:href="#DejaVuSans-116"/>
     <use transform="translate(843.261719 0.015625)" xlink:href="#DejaVuSans-32"/>
     <use transform="translate(875.048828 0.015625)" xlink:href="#DejaVuSans-105"/>
     <use transform="translate(902.832031 0.015625)" xlink:href="#DejaVuSans-115"/>
     <use transform="translate(954.931641 0.015625)" xlink:href="#DejaVuSans-58"/>
     <use transform="translate(988.623047 0.015625)" xlink:href="#DejaVuSans-32"/>
     <use transform="translate(1020.410156 0.015625)" xlink:href="#DejaVuSans-53"/>
     <use transform="translate(1084.033203 0.015625)" xlink:href="#DejaVuSans-51"/>
     <use transform="translate(1147.65625 0.015625)" xlink:href="#DejaVuSans-46"/>
     <use transform="translate(1179.443359 0.015625)" xlink:href="#DejaVuSans-51"/>
     <use transform="translate(1243.066406 0.015625)" xlink:href="#DejaVuSans-32"/>
     <use transform="translate(1274.853516 0.015625)" xlink:href="#DejaVuSans-Oblique-109"/>
    </g>
   </g>
   <g id="text_18">
    <!-- Time in free fall was: 2.87 $s$ -->
    <defs>
     <path d="M -0.296875 72.90625 
L 61.375 72.90625 
L 61.375 64.59375 
L 35.5 64.59375 
L 35.5 0 
L 25.59375 0 
L 25.59375 64.59375 
L -0.296875 64.59375 
z
" id="DejaVuSans-84"/>
     <path d="M 37.109375 75.984375 
L 37.109375 68.5 
L 28.515625 68.5 
Q 23.6875 68.5 21.796875 66.546875 
Q 19.921875 64.59375 19.921875 59.515625 
L 19.921875 54.6875 
L 34.71875 54.6875 
L 34.71875 47.703125 
L 19.921875 47.703125 
L 19.921875 0 
L 10.890625 0 
L 10.890625 47.703125 
L 2.296875 47.703125 
L 2.296875 54.6875 
L 10.890625 54.6875 
L 10.890625 58.5 
Q 10.890625 67.625 15.140625 71.796875 
Q 19.390625 75.984375 28.609375 75.984375 
z
" id="DejaVuSans-102"/>
     <path d="M 4.203125 54.6875 
L 13.1875 54.6875 
L 24.421875 12.015625 
L 35.59375 54.6875 
L 46.1875 54.6875 
L 57.421875 12.015625 
L 68.609375 54.6875 
L 77.59375 54.6875 
L 63.28125 0 
L 52.6875 0 
L 40.921875 44.828125 
L 29.109375 0 
L 18.5 0 
z
" id="DejaVuSans-119"/>
     <path d="M 31.78125 34.625 
Q 24.75 34.625 20.71875 30.859375 
Q 16.703125 27.09375 16.703125 20.515625 
Q 16.703125 13.921875 20.71875 10.15625 
Q 24.75 6.390625 31.78125 6.390625 
Q 38.8125 6.390625 42.859375 10.171875 
Q 46.921875 13.96875 46.921875 20.515625 
Q 46.921875 27.09375 42.890625 30.859375 
Q 38.875 34.625 31.78125 34.625 
z
M 21.921875 38.8125 
Q 15.578125 40.375 12.03125 44.71875 
Q 8.5 49.078125 8.5 55.328125 
Q 8.5 64.0625 14.71875 69.140625 
Q 20.953125 74.21875 31.78125 74.21875 
Q 42.671875 74.21875 48.875 69.140625 
Q 55.078125 64.0625 55.078125 55.328125 
Q 55.078125 49.078125 51.53125 44.71875 
Q 48 40.375 41.703125 38.8125 
Q 48.828125 37.15625 52.796875 32.3125 
Q 56.78125 27.484375 56.78125 20.515625 
Q 56.78125 9.90625 50.3125 4.234375 
Q 43.84375 -1.421875 31.78125 -1.421875 
Q 19.734375 -1.421875 13.25 4.234375 
Q 6.78125 9.90625 6.78125 20.515625 
Q 6.78125 27.484375 10.78125 32.3125 
Q 14.796875 37.15625 21.921875 38.8125 
z
M 18.3125 54.390625 
Q 18.3125 48.734375 21.84375 45.5625 
Q 25.390625 42.390625 31.78125 42.390625 
Q 38.140625 42.390625 41.71875 45.5625 
Q 45.3125 48.734375 45.3125 54.390625 
Q 45.3125 60.0625 41.71875 63.234375 
Q 38.140625 66.40625 31.78125 66.40625 
Q 25.390625 66.40625 21.84375 63.234375 
Q 18.3125 60.0625 18.3125 54.390625 
z
" id="DejaVuSans-56"/>
     <path d="M 8.203125 72.90625 
L 55.078125 72.90625 
L 55.078125 68.703125 
L 28.609375 0 
L 18.3125 0 
L 43.21875 64.59375 
L 8.203125 64.59375 
z
" id="DejaVuSans-55"/>
    </defs>
    <g transform="translate(806.616807 544.190655)scale(0.1 -0.1)">
     <use transform="translate(0 0.015625)" xlink:href="#DejaVuSans-84"/>
     <use transform="translate(61.083984 0.015625)" xlink:href="#DejaVuSans-105"/>
     <use transform="translate(88.867188 0.015625)" xlink:href="#DejaVuSans-109"/>
     <use transform="translate(186.279297 0.015625)" xlink:href="#DejaVuSans-101"/>
     <use transform="translate(247.802734 0.015625)" xlink:href="#DejaVuSans-32"/>
     <use transform="translate(279.589844 0.015625)" xlink:href="#DejaVuSans-105"/>
     <use transform="translate(307.373047 0.015625)" xlink:href="#DejaVuSans-110"/>
     <use transform="translate(370.751953 0.015625)" xlink:href="#DejaVuSans-32"/>
     <use transform="translate(402.539062 0.015625)" xlink:href="#DejaVuSans-102"/>
     <use transform="translate(437.744141 0.015625)" xlink:href="#DejaVuSans-114"/>
     <use transform="translate(478.857422 0.015625)" xlink:href="#DejaVuSans-101"/>
     <use transform="translate(540.380859 0.015625)" xlink:href="#DejaVuSans-101"/>
     <use transform="translate(601.904297 0.015625)" xlink:href="#DejaVuSans-32"/>
     <use transform="translate(633.691406 0.015625)" xlink:href="#DejaVuSans-102"/>
     <use transform="translate(668.896484 0.015625)" xlink:href="#DejaVuSans-97"/>
     <use transform="translate(730.175781 0.015625)" xlink:href="#DejaVuSans-108"/>
     <use transform="translate(757.958984 0.015625)" xlink:href="#DejaVuSans-108"/>
     <use transform="translate(785.742188 0.015625)" xlink:href="#DejaVuSans-32"/>
     <use transform="translate(817.529297 0.015625)" xlink:href="#DejaVuSans-119"/>
     <use transform="translate(899.316406 0.015625)" xlink:href="#DejaVuSans-97"/>
     <use transform="translate(960.595703 0.015625)" xlink:href="#DejaVuSans-115"/>
     <use transform="translate(1012.695312 0.015625)" xlink:href="#DejaVuSans-58"/>
     <use transform="translate(1046.386719 0.015625)" xlink:href="#DejaVuSans-32"/>
     <use transform="translate(1078.173828 0.015625)" xlink:href="#DejaVuSans-50"/>
     <use transform="translate(1141.796875 0.015625)" xlink:href="#DejaVuSans-46"/>
     <use transform="translate(1170.958984 0.015625)" xlink:href="#DejaVuSans-56"/>
     <use transform="translate(1234.582031 0.015625)" xlink:href="#DejaVuSans-55"/>
     <use transform="translate(1298.205078 0.015625)" xlink:href="#DejaVuSans-32"/>
     <use transform="translate(1329.992188 0.015625)" xlink:href="#DejaVuSans-Oblique-115"/>
    </g>
   </g>
   <g id="text_19">
    <!-- Maximum acceleration is: 3.42 g -->
    <g transform="translate(814.440717 166.185071)scale(0.1 -0.1)">
     <use xlink:href="#DejaVuSans-77"/>
     <use x="86.279297" xlink:href="#DejaVuSans-97"/>
     <use x="147.558594" xlink:href="#DejaVuSans-120"/>
     <use x="206.738281" xlink:href="#DejaVuSans-105"/>
     <use x="234.521484" xlink:href="#DejaVuSans-109"/>
     <use x="331.933594" xlink:href="#DejaVuSans-117"/>
     <use x="395.3125" xlink:href="#DejaVuSans-109"/>
     <use x="492.724609" xlink:href="#DejaVuSans-32"/>
     <use x="524.511719" xlink:href="#DejaVuSans-97"/>
     <use x="585.791016" xlink:href="#DejaVuSans-99"/>
     <use x="640.771484" xlink:href="#DejaVuSans-99"/>
     <use x="695.751953" xlink:href="#DejaVuSans-101"/>
     <use x="757.275391" xlink:href="#DejaVuSans-108"/>
     <use x="785.058594" xlink:href="#DejaVuSans-101"/>
     <use x="846.582031" xlink:href="#DejaVuSans-114"/>
     <use x="887.695312" xlink:href="#DejaVuSans-97"/>
     <use x="948.974609" xlink:href="#DejaVuSans-116"/>
     <use x="988.183594" xlink:href="#DejaVuSans-105"/>
     <use x="1015.966797" xlink:href="#DejaVuSans-111"/>
     <use x="1077.148438" xlink:href="#DejaVuSans-110"/>
     <use x="1140.527344" xlink:href="#DejaVuSans-32"/>
     <use x="1172.314453" xlink:href="#DejaVuSans-105"/>
     <use x="1200.097656" xlink:href="#DejaVuSans-115"/>
     <use x="1252.197266" xlink:href="#DejaVuSans-58"/>
     <use x="1285.888672" xlink:href="#DejaVuSans-32"/>
     <use x="1317.675781" xlink:href="#DejaVuSans-51"/>
     <use x="1381.298828" xlink:href="#DejaVuSans-46"/>
     <use x="1413.085938" xlink:href="#DejaVuSans-52"/>
     <use x="1476.708984" xlink:href="#DejaVuSans-50"/>
     <use x="1540.332031" xlink:href="#DejaVuSans-32"/>
     <use x="1572.119141" xlink:href="#DejaVuSans-103"/>
    </g>
   </g>
   <g id="legend_1">
    <g id="patch_7">
     <path d="M 64.6 81.266375 
L 158.203125 81.266375 
Q 160.203125 81.266375 160.203125 79.266375 
L 160.203125 36.232 
Q 160.203125 34.232 158.203125 34.232 
L 64.6 34.232 
Q 62.6 34.232 62.6 36.232 
L 62.6 79.266375 
Q 62.6 81.266375 64.6 81.266375 
z
" style="fill:#ffffff;opacity:0.8;stroke:#cccccc;stroke-linejoin:miter;"/>
    </g>
    <g id="line2d_32">
     <path d="M 66.6 42.330437 
L 86.6 42.330437 
" style="fill:none;stroke:#1f77b4;stroke-linecap:square;stroke-width:1.5;"/>
    </g>
    <g id="line2d_33"/>
    <g id="text_20">
     <!-- velocity -->
     <g transform="translate(94.6 45.830437)scale(0.1 -0.1)">
      <use xlink:href="#DejaVuSans-118"/>
      <use x="59.179688" xlink:href="#DejaVuSans-101"/>
      <use x="120.703125" xlink:href="#DejaVuSans-108"/>
      <use x="148.486328" xlink:href="#DejaVuSans-111"/>
      <use x="209.667969" xlink:href="#DejaVuSans-99"/>
      <use x="264.648438" xlink:href="#DejaVuSans-105"/>
      <use x="292.431641" xlink:href="#DejaVuSans-116"/>
      <use x="331.640625" xlink:href="#DejaVuSans-121"/>
     </g>
    </g>
    <g id="line2d_34">
     <path d="M 66.6 57.008562 
L 86.6 57.008562 
" style="fill:none;stroke:#ff7f0e;stroke-linecap:square;stroke-width:1.5;"/>
    </g>
    <g id="line2d_35"/>
    <g id="text_21">
     <!-- acceleration -->
     <g transform="translate(94.6 60.508562)scale(0.1 -0.1)">
      <use xlink:href="#DejaVuSans-97"/>
      <use x="61.279297" xlink:href="#DejaVuSans-99"/>
      <use x="116.259766" xlink:href="#DejaVuSans-99"/>
      <use x="171.240234" xlink:href="#DejaVuSans-101"/>
      <use x="232.763672" xlink:href="#DejaVuSans-108"/>
      <use x="260.546875" xlink:href="#DejaVuSans-101"/>
      <use x="322.070312" xlink:href="#DejaVuSans-114"/>
      <use x="363.183594" xlink:href="#DejaVuSans-97"/>
      <use x="424.462891" xlink:href="#DejaVuSans-116"/>
      <use x="463.671875" xlink:href="#DejaVuSans-105"/>
      <use x="491.455078" xlink:href="#DejaVuSans-111"/>
      <use x="552.636719" xlink:href="#DejaVuSans-110"/>
     </g>
    </g>
    <g id="line2d_36">
     <path d="M 66.6 71.686687 
L 86.6 71.686687 
" style="fill:none;stroke:#2ca02c;stroke-linecap:square;stroke-width:1.5;"/>
    </g>
    <g id="line2d_37"/>
    <g id="text_22">
     <!-- height -->
     <g transform="translate(94.6 75.186687)scale(0.1 -0.1)">
      <use xlink:href="#DejaVuSans-104"/>
      <use x="63.378906" xlink:href="#DejaVuSans-101"/>
      <use x="124.902344" xlink:href="#DejaVuSans-105"/>
      <use x="152.685547" xlink:href="#DejaVuSans-103"/>
      <use x="216.162109" xlink:href="#DejaVuSans-104"/>
      <use x="279.541016" xlink:href="#DejaVuSans-116"/>
     </g>
    </g>
   </g>
  </g>
 </g>
 <defs>
  <clipPath id="pfa1f8ae03d">
   <rect height="526.176" width="1036.8" x="57.6" y="29.232"/>
  </clipPath>
 </defs>
</svg>
